…
``` r
fourgrams_separated <- fourgram_cover_90 %>%
  separate(fourgram, c("word1", "word2", "word3", "word4"), sep = " ")
fourgrams_separated
```

    ## # A tibble: 5,092,014 x 7
    ##     word1 word2 word3 word4     n   proportion     coverage
    ##  *  <chr> <chr> <chr> <chr> <int>        <dbl>        <dbl>
    ##  1    the   end    of   the   525 8.431053e-05 8.431053e-05
    ##  2    the  rest    of   the   478 7.676273e-05 1.610733e-04
    ##  3     at   the   end    of   420 6.744843e-05 2.285217e-04
    ##  4    for   the first  time   379 6.086417e-05 2.893859e-04
    ##  5     is going    to    be   370 5.941885e-05 3.488047e-04
    ##  6 thanks   for   the    rt   359 5.765235e-05 4.064571e-04
    ##  7     at   the  same  time   356 5.717057e-05 4.636276e-04
    ##  8  thank   you   for   the   331 5.315578e-05 5.167834e-04
    ##  9     if   you  want    to   298 4.785626e-05 5.646397e-04
    ## 10     is   one    of   the   296 4.753508e-05 6.121748e-04
    ## # ... with 5,092,004 more rows
…
