…
What does the distribution on ngrams look like?
-----------------------------------------------

``` r
disty <- data_frame(ngram = c(rep("bigrams",   nrow(bigram_cover)),
                             rep("trigrams",  nrow(trigram_cover)),
                             rep("quadgrams", nrow(quadgram_cover))),
                   number = c(bigram_cover$n, trigram_cover$n, quadgram_cover$n))
disty
```

    ## # A tibble: 148,719 x 2
    ##      ngram number
    ##      <chr>  <int>
    ##  1 bigrams  44296
    ##  2 bigrams  41480
    ##  3 bigrams  25015
    ##  4 bigrams  20646
    ##  5 bigrams  19953
    ##  6 bigrams  16338
    ##  7 bigrams  16290
    ##  8 bigrams  14462
    ##  9 bigrams  14357
    ## 10 bigrams  12060
    ## # ... with 148,709 more rows
…
    ## Saving 7 x 5 in image

Separate words
--------------

``` r
bi_words <- bigram_cover %>%
  separate(bigram, c("word1", "word2"), sep = " ")
bi_words
```

    ## # A tibble: 87,239 x 3
    ##    word1 word2     n
    ##  * <chr> <chr> <int>
    ##  1    of   the 44296
    ##  2    in   the 41480
    ##  3    to   the 25015
    ##  4   for   the 20646
    ##  5    on   the 19953
    ##  6     c     e 16338
    ##  7    to    be 16290
    ##  8    at   the 14462
    ##  9   and   the 14357
    ## 10    in     a 12060
    ## # ... with 87,229 more rows

``` r
tri_words <- trigram_cover %>%
  separate(trigram, c("word1", "word2", "word3"), sep = " ")
tri_words
```

    ## # A tibble: 51,539 x 4
    ##     word1 word2 word3     n
    ##  *  <chr> <chr> <chr> <int>
    ##  1    one    of   the  3543
    ##  2      a   lot    of  2929
    ##  3 thanks   for   the  2501
    ##  4     to    be     a  1888
    ##  5  going    to    be  1825
    ##  6    the    of   the  1814
    ##  7      i  want    to  1629
    ##  8    the   end    of  1522
    ##  9    out    of   the  1520
    ## 10     it   was     a  1511
    ## # ... with 51,529 more rows

``` r
quad_words <- quadgram_cover %>%
  separate(quadgram, c("word1", "word2", "word3", "word4"), sep = " ")
quad_words
```

    ## # A tibble: 9,941 x 5
    ##    word1 word2 word3 word4     n
    ##  * <chr> <chr> <chr> <chr> <int>
    ##  1   the   end    of   the   806
    ##  2    at   the   end    of   656
    ##  3   the  rest    of   the   651
    ##  4   for   the first  time   613
    ##  5    at   the  same  time   506
    ##  6    is going    to    be   482
    ##  7    is   one    of   the   446
    ##  8   one    of   the  most   435
    ##  9  when    it comes    to   419
    ## 10 going    to    be     a   376
    ## # ... with 9,931 more rows
…
